net\technicaltest\note\controller\NoteController.class
net\technicaltest\note\service\NoteServiceImpl.class
net\technicaltest\note\form\Note.class
net\technicaltest\note\dao\NoteDAO.class
net\technicaltest\note\service\NoteService.class
net\technicaltest\note\dao\NoteDAOImpl.class
